[
  {
    "path": {
"start": {
"identity": 691,
"labels": [
          "town"
        ],
"properties": {
"name": "Darjeeling"
        }
      },
"end": {
"identity": 693,
"labels": [
          "peak"
        ],
"properties": {
"name": "Sandakphu",
"altitude": "12400 ft"
        }
      },
"segments": [
        {
          "start": {
"identity": 691,
"labels": [
              "town"
            ],
"properties": {
"name": "Darjeeling"
            }
          },
          "relationship": {
"identity": 1019,
"start": 691,
"end": 690,
"type": "trek",
"properties": {
"name": "Darjeeling-Rimbik",
"winter": "true",
"distance": 15,
"summer": "true"
            }
          },
          "end": {
"identity": 690,
"labels": [
              "town"
            ],
"properties": {
"name": "Rimbik"
            }
          }
        },
        {
          "start": {
"identity": 690,
"labels": [
              "town"
            ],
"properties": {
"name": "Rimbik"
            }
          },
          "relationship": {
"identity": 1020,
"start": 690,
"end": 692,
"type": "trek",
"properties": {
"name": "Rimbik-BhikeBhanja",
"winter": "true",
"distance": 18,
"summer": "true"
            }
          },
          "end": {
"identity": 692,
"labels": [
              "village"
            ],
"properties": {
"name": "BhikeBhanja"
            }
          }
        },
        {
          "start": {
"identity": 692,
"labels": [
              "village"
            ],
"properties": {
"name": "BhikeBhanja"
            }
          },
          "relationship": {
"identity": 1021,
"start": 692,
"end": 693,
"type": "trek",
"properties": {
"name": "BhikeBhanja-Sandakphu",
"winter": "true",
"distance": 4,
"summer": "true"
            }
          },
          "end": {
"identity": 693,
"labels": [
              "peak"
            ],
"properties": {
"name": "Sandakphu",
"altitude": "12400 ft"
            }
          }
        }
      ],
"length": 3.0
    }
  },
  {
    "path": {
"start": {
"identity": 691,
"labels": [
          "town"
        ],
"properties": {
"name": "Darjeeling"
        }
      },
"end": {
"identity": 693,
"labels": [
          "peak"
        ],
"properties": {
"name": "Sandakphu",
"altitude": "12400 ft"
        }
      },
"segments": [
        {
          "start": {
"identity": 691,
"labels": [
              "town"
            ],
"properties": {
"name": "Darjeeling"
            }
          },
          "relationship": {
"identity": 1017,
"start": 691,
"end": 690,
"type": "PublicTransport",
"properties": {
"name": "Darjeeling-Rimbik",
"winter": "true",
"distance": 15,
"summer": "true"
            }
          },
          "end": {
"identity": 690,
"labels": [
              "town"
            ],
"properties": {
"name": "Rimbik"
            }
          }
        },
        {
          "start": {
"identity": 690,
"labels": [
              "town"
            ],
"properties": {
"name": "Rimbik"
            }
          },
          "relationship": {
"identity": 1020,
"start": 690,
"end": 692,
"type": "trek",
"properties": {
"name": "Rimbik-BhikeBhanja",
"winter": "true",
"distance": 18,
"summer": "true"
            }
          },
          "end": {
"identity": 692,
"labels": [
              "village"
            ],
"properties": {
"name": "BhikeBhanja"
            }
          }
        },
        {
          "start": {
"identity": 692,
"labels": [
              "village"
            ],
"properties": {
"name": "BhikeBhanja"
            }
          },
          "relationship": {
"identity": 1021,
"start": 692,
"end": 693,
"type": "trek",
"properties": {
"name": "BhikeBhanja-Sandakphu",
"winter": "true",
"distance": 4,
"summer": "true"
            }
          },
          "end": {
"identity": 693,
"labels": [
              "peak"
            ],
"properties": {
"name": "Sandakphu",
"altitude": "12400 ft"
            }
          }
        }
      ],
"length": 3.0
    }
  },
  {
    "path": {
"start": {
"identity": 691,
"labels": [
          "town"
        ],
"properties": {
"name": "Darjeeling"
        }
      },
"end": {
"identity": 693,
"labels": [
          "peak"
        ],
"properties": {
"name": "Sandakphu",
"altitude": "12400 ft"
        }
      },
"segments": [
        {
          "start": {
"identity": 691,
"labels": [
              "town"
            ],
"properties": {
"name": "Darjeeling"
            }
          },
          "relationship": {
"identity": 1018,
"start": 691,
"end": 690,
"type": "road",
"properties": {
"name": "Darjeeling-Rimbik",
"winter": "true",
"distance": 15,
"summer": "true"
            }
          },
          "end": {
"identity": 690,
"labels": [
              "town"
            ],
"properties": {
"name": "Rimbik"
            }
          }
        },
        {
          "start": {
"identity": 690,
"labels": [
              "town"
            ],
"properties": {
"name": "Rimbik"
            }
          },
          "relationship": {
"identity": 1020,
"start": 690,
"end": 692,
"type": "trek",
"properties": {
"name": "Rimbik-BhikeBhanja",
"winter": "true",
"distance": 18,
"summer": "true"
            }
          },
          "end": {
"identity": 692,
"labels": [
              "village"
            ],
"properties": {
"name": "BhikeBhanja"
            }
          }
        },
        {
          "start": {
"identity": 692,
"labels": [
              "village"
            ],
"properties": {
"name": "BhikeBhanja"
            }
          },
          "relationship": {
"identity": 1021,
"start": 692,
"end": 693,
"type": "trek",
"properties": {
"name": "BhikeBhanja-Sandakphu",
"winter": "true",
"distance": 4,
"summer": "true"
            }
          },
          "end": {
"identity": 693,
"labels": [
              "peak"
            ],
"properties": {
"name": "Sandakphu",
"altitude": "12400 ft"
            }
          }
        }
      ],
"length": 3.0
    }
  }
]