[
  {
    "film": {
"identity": 684,
"labels": [
        "Movie"
      ],
"properties": {
"tagline": "Druga wojna światowa. Steve Rogers stara się zaciągnąć do wojska, ale jego słaba postura go dyskwalifikuje. Tajny eksperyment czyni z niego siłacza zdolnego pokonać nazistów.",
"title": "Captain America: Pierwsze Starcie",
"released": 2011
      }
    }
  }
]